%YAML 1.1
%TAG !u! tag:unity3d.com,2011:
--- !u!221 &22100000
AnimatorOverrideController:
  m_ObjectHideFlags: 0
  m_PrefabParentObject: {fileID: 0}
  m_PrefabInternal: {fileID: 0}
  m_Name: enemy strong
  m_Controller: {fileID: 9100000, guid: 643015b85e50e894ca4a76bc19138a19, type: 2}
  m_Clips:
  - m_OriginalClip: {fileID: 7400000, guid: 2f0424d8966f67e4aa45b6e8c1eef3a0, type: 2}
    m_OverrideClip: {fileID: 7400000, guid: eb9ee57bb53c3e744af93b6dc1e70b75, type: 2}
  - m_OriginalClip: {fileID: 7400000, guid: 6dc1ca0c102dee546bead189352fbb0d, type: 2}
    m_OverrideClip: {fileID: 7400000, guid: 355c7213eda1aef4994989c23c5632d4, type: 2}
